aioredis==1.3.1
appnope==0.1.2
asgiref==3.3.1
async-timeout==3.0.1
attrs==20.3.0
autobahn==21.2.1
Automat==20.2.0
backcall==0.2.0
certifi==2020.12.5
cffi==1.14.5
channels==3.0.3
channels-redis==3.2.0
chardet==4.0.0
constantly==15.1.0
coreapi==2.3.3
coreschema==0.0.4
cryptography==3.4.5
daphne==3.0.1
decorator==4.4.2
dj-config-url==0.1.1
Django==3.1.4
dj-database-url==0.5.0
django-environ==0.4.5
djangorestframework==3.12.2
environ==1.0
hiredis==1.1.0
hyperlink==21.0.0
idna==2.10
incremental==17.5.0
ipython==7.20.0
ipython-genutils==0.2.0
itypes==1.2.0
jedi==0.18.0
Jinja2==2.11.3
MarkupSafe==1.1.1
msgpack==1.0.2
parso==0.8.1
pexpect==4.8.0
pickleshare==0.7.5
Pillow==8.1.0
prompt-toolkit==3.0.16
psycopg2-binary==2.8.6
ptyprocess==0.7.0
pyasn1==0.4.8
pyasn1-modules==0.2.8
pycparser==2.20
Pygments==2.8.0
PyHamcrest==2.0.2
pyOpenSSL==20.0.1
pytz==2021.1
requests==2.25.1
service-identity==18.1.0
six==1.15.0
sqlparse==0.4.1
traitlets==5.0.5
Twisted==20.3.0
txaio==20.12.1
uritemplate==3.0.1
urllib3==1.26.3
wcwidth==0.2.5
zope.interface==5.2.0
